PS4
…
Focus only on the 2014 election. Report the proportion of votes for each party in the Candidate election. Again, produce a nice table and sort it by percent of vote.

nzge %>%
  filter(election_year == 2014, voting_type == "Candidate") %>%
  group_by(party) %>%
  summarise(total_votes = sum(votes)) %>%
  mutate(prop_votes = round(100*total_votes/sum(total_votes), 3)) %>%
  arrange(-prop_votes) %>%
  select(-total_votes)

# A tibble: 25 × 2
   party                    prop_votes
   <chr>                         <dbl>
 1 National Party                45.5 
 2 Labour Party                  33.7 
 3 Green Party                    6.98
 4 Conservative Party             3.41
 5 New Zealand First Party        3.09
 6 Maori Party                    1.77
 7 MANA Movement                  1.36
 8 Informal Candidate Votes       1.17
 9 ACT New Zealand                1.17
10 United Future                  0.62
# ℹ 15 more rows
…
